<svg width="24" height="23" viewBox="0 0 24 23" fill="none" xmlns="http://www.w3.org/2000/svg">
<path fill-rule="evenodd" clip-rule="evenodd" d="M16.62 0.100167C17.3772 0.100167 18.1332 0.206967 18.852 0.448167C23.2812 1.88816 24.8772 6.74816 23.544 10.9961C22.788 13.1669 21.552 15.1481 19.9332 16.7669C17.616 19.0109 15.0732 21.0029 12.336 22.7189L12.036 22.9001L11.724 22.7069C8.9772 21.0029 6.42001 19.0109 4.08121 16.7549C2.47322 15.1361 1.23602 13.1669 0.468019 10.9961C-0.887979 6.74816 0.708019 1.88816 5.18521 0.422967C5.53321 0.302967 5.89201 0.218967 6.25201 0.172167H6.39601C6.73321 0.122967 7.06801 0.100167 7.40401 0.100167H7.53601C8.29201 0.122967 9.024 0.254967 9.7332 0.496166H9.804C9.852 0.518966 9.888 0.544166 9.912 0.566966C10.1772 0.652166 10.428 0.748166 10.668 0.880166L11.124 1.08417C11.2342 1.14293 11.3579 1.23273 11.4648 1.31033C11.5325 1.3595 11.5935 1.40377 11.64 1.43216C11.6596 1.44372 11.6795 1.45534 11.6995 1.46705C11.8024 1.52711 11.9096 1.58968 12 1.65896C13.3332 0.640166 14.952 0.0881672 16.62 0.100167ZM19.8117 8.74015C20.3037 8.72695 20.7237 8.33215 20.7597 7.82695V7.68415C20.7957 6.00295 19.7769 4.48015 18.2277 3.89215C17.7357 3.72296 17.1957 3.98815 17.0157 4.49215C16.8477 4.99615 17.1117 5.54815 17.6157 5.72695C18.3849 6.01495 18.8997 6.77215 18.8997 7.61095V7.64815C18.8769 7.92295 18.9597 8.18815 19.1277 8.39215C19.2957 8.59615 19.5477 8.71495 19.8117 8.74015Z" fill="#E22342"/>
</svg>
